Assignment 3
…
str(GB_tables, max.level = 1)

List of 7
 $ : tibble [27 × 2] (S3: tbl_df/tbl/data.frame)
 $ : tibble [11 × 4] (S3: tbl_df/tbl/data.frame)
 $ : tibble [6 × 17] (S3: tbl_df/tbl/data.frame)
 $ : tibble [5 × 3] (S3: tbl_df/tbl/data.frame)
 $ : tibble [9 × 2] (S3: tbl_df/tbl/data.frame)
 $ : tibble [2 × 2] (S3: tbl_df/tbl/data.frame)
 $ : tibble [2 × 2] (S3: tbl_df/tbl/data.frame)

# Find historical population
GB_tables[[1]]

# A tibble: 27 × 2
   `Grand Boulevard`                                           `Grand Boulevard`
   <chr>                                                       <chr>            
 1 Community area                                              Community area   
 2 Community Area 38 – Grand Boulevard                         Community Area 3…
 3 The Harold Washington Cultural Center                       The Harold Washi…
 4 Location within the city of Chicago                         Location within …
 5 Coordinates: .mw-parser-output .geo-default,.mw-parser-out… Coordinates: .mw…
 6 Country                                                     United States    
 7 State                                                       Illinois         
 8 County                                                      Cook             
 9 City                                                        Chicago          
10 Named after                                                 Grand Boulevard …
# ℹ 17 more rows
…
